<svg width="182" height="182" viewBox="0 0 182 182" fill="none" xmlns="http://www.w3.org/2000/svg">
<circle cx="90.7337" cy="90.7337" r="90.7337" fill="#064743"/>
<g clip-path="url(#clip0_1023_210)">
<path d="M143.218 93.3552C143.218 84.5282 137.733 76.901 129.591 73.9015C129.936 72.0358 130.108 70.1423 130.105 68.245C130.105 51.8761 116.822 38.5928 100.453 38.5928C90.9403 38.5928 82.0276 43.1348 76.4568 50.9336C73.7145 48.7909 70.3722 47.6769 66.8584 47.6769C58.2024 47.6769 51.0895 54.7041 51.0895 63.4458C51.0895 65.3313 51.4324 67.2168 52.032 68.9308C43.8051 71.7588 38.2344 79.6433 38.2344 88.3845C38.2344 97.2119 43.7194 104.925 51.9463 107.924C51.6038 109.724 51.4324 111.61 51.4324 113.58C51.4324 129.864 64.7157 143.147 80.9989 143.147C90.5974 143.147 99.4248 138.52 104.995 130.807C107.737 132.949 111.165 134.149 114.679 134.149C123.335 134.149 130.448 127.121 130.448 118.38C130.448 116.495 130.105 114.609 129.506 112.895C137.561 109.981 143.218 102.097 143.218 93.3552H143.218Z" fill="white"/>
<path d="M55.0315 108.268C54.689 109.982 54.5176 111.781 54.5176 113.581C54.5176 128.15 66.4297 140.063 80.9989 140.063C89.8263 140.063 97.9679 135.692 102.938 128.493L106.795 108.096L101.567 98.1548L78.0852 87.4424L55.0315 108.268Z" fill="#3CBEB1"/>
<path d="M79.2852 83.4997L102.682 94.2126L126.335 73.4731C126.68 71.7519 126.852 70.0006 126.849 68.2452C126.849 53.6765 115.023 41.8496 100.453 41.8496C91.7117 41.8496 83.5705 46.1345 78.6856 53.3332L74.7432 73.7302L79.2852 83.5002V83.4997Z" fill="#F4BD19"/>
<path d="M53.4887 71.5869C46.29 73.901 41.3193 80.8429 41.3193 88.3845C41.3193 95.755 45.8614 102.354 52.7176 104.925L75.2569 84.5278L71.143 75.7012L53.4887 71.5873V71.5869Z" fill="#2C458F"/>
<path d="M110.309 106.039L127.964 110.153C135.162 107.754 140.133 100.897 140.133 93.3554C140.133 85.9849 135.591 79.472 128.735 76.8154L105.596 97.0406L110.309 106.039V106.039Z" fill="#176655"/>
<path d="M54.8604 67.7311L70.8864 71.502L74.4855 53.2476C72.2576 51.5336 69.6006 50.6768 66.7725 50.6768C59.8306 50.6768 54.0889 56.3328 54.0889 63.3604C54.0889 64.8173 54.346 66.3599 54.86 67.7311H54.8604Z" fill="#E9478C"/>
<path d="M107.052 128.408C109.28 130.122 111.937 131.065 114.679 131.065C121.621 131.065 127.363 125.408 127.363 118.381C127.363 116.838 127.106 115.381 126.592 114.01L110.566 110.239L107.052 128.408Z" fill="#95C63D"/>
</g>
<defs>
<clipPath id="clip0_1023_210">
<rect width="105" height="105" fill="white" transform="translate(38.2344 38.2334)"/>
</clipPath>
</defs>
</svg>
