<svg width="182" height="182" viewBox="0 0 182 182" fill="none" xmlns="http://www.w3.org/2000/svg">
<circle cx="90.7337" cy="90.7337" r="90.7337" fill="url(#paint0_linear_1023_199)"/>
<path d="M90.7328 33.5947C89.288 33.5947 87.8826 33.8932 86.6387 34.597L47.2798 57.3264C44.7328 58.7945 43.1846 61.5657 43.1846 64.5146V109.891C43.1846 112.838 44.7328 115.605 47.2798 117.077L57.5586 123.011C62.5528 125.472 64.3937 125.433 66.6666 125.433C74.0603 125.433 78.2821 120.947 78.2821 113.15V68.3578C78.2821 67.7248 77.734 67.2719 77.1126 67.2719H72.1823C71.5504 67.2719 71.0127 67.7248 71.0127 68.3578V113.15C71.0127 116.605 67.4122 120.081 61.5702 117.16L50.8733 110.893C50.4947 110.688 50.2043 110.324 50.2043 109.891V64.5134C50.2043 64.0837 50.4912 63.6458 50.8733 63.4275L90.1486 40.7829C90.326 40.6792 90.5279 40.6246 90.7334 40.6246C90.9389 40.6246 91.1407 40.6792 91.3181 40.7829L130.595 63.4286C130.969 63.654 131.264 64.0709 131.264 64.5158V109.892C131.264 110.325 131.045 110.769 130.678 110.978L91.3181 133.624C90.9813 133.825 90.5168 133.825 90.1486 133.624L80.0371 127.608C79.8832 127.524 79.7109 127.48 79.5359 127.48C79.3609 127.48 79.1886 127.524 79.0348 127.608C76.2438 129.189 75.7188 129.373 73.101 130.281C72.4564 130.507 71.4773 130.856 73.4355 131.954L86.6387 139.724C87.8836 140.442 89.2967 140.817 90.734 140.811C92.171 140.82 93.5844 140.445 94.828 139.725L134.188 117.078C136.735 115.597 138.282 112.839 138.282 109.892V64.5146C138.282 61.5669 136.735 58.8003 134.188 57.3288L94.828 34.5994C93.5946 33.8944 92.18 33.5959 90.734 33.5959L90.7328 33.5947Z" fill="white"/>
<path d="M101.262 66.0186C90.0546 66.0186 83.3798 70.7886 83.3798 78.7212C83.3798 87.3252 90.0047 89.6899 100.762 90.7538C113.631 92.0139 114.633 93.9036 114.633 96.4367C114.633 100.83 111.13 102.704 102.851 102.704C92.4483 102.704 90.1626 100.107 89.3972 94.9326C89.3066 94.3774 88.878 93.9291 88.3101 93.9291H83.2126C82.5854 93.9291 82.043 94.4704 82.043 95.0999C82.043 101.724 85.6458 109.556 102.851 109.556C115.305 109.556 122.489 104.668 122.489 96.1022C122.489 87.6121 116.686 85.3321 104.605 83.7352C92.3984 82.1196 91.2346 81.3287 91.2346 78.4704C91.2346 76.1103 92.2218 72.9535 101.262 72.9535C109.339 72.9535 112.324 74.6957 113.547 80.1417C113.654 80.6527 114.105 81.0604 114.633 81.0604H119.732C120.045 81.0604 120.35 80.8676 120.567 80.6423C120.781 80.4018 120.931 80.1312 120.901 79.8072C120.112 70.4297 113.858 66.0186 101.262 66.0186Z" fill="white"/>
<defs>
<linearGradient id="paint0_linear_1023_199" x1="62.8724" y1="6.52508" x2="135.012" y2="183.595" gradientUnits="userSpaceOnUse">
<stop stop-color="#83CD29"/>
<stop offset="1" stop-color="#56940C"/>
</linearGradient>
</defs>
</svg>
