<svg width="182" height="182" viewBox="0 0 182 182" fill="none" xmlns="http://www.w3.org/2000/svg">
<circle cx="90.7337" cy="90.7337" r="90.7337" fill="#207196"/>
<path d="M104.292 67.1918C104.252 67.232 104.192 67.2521 104.152 67.2717C104.392 68.353 104.333 69.4947 104.132 70.5961C104.813 71.3572 104.513 72.8588 103.191 72.8588C101.309 72.8387 99.4463 72.8387 97.5641 72.8387C102.13 85.3943 108.297 98.5909 111.382 111.607C112.863 105.94 114.846 100.394 115.787 94.5862C117.349 85.0544 114.786 78.6062 112.123 69.7149C110.661 64.8889 111.181 60.8039 114.045 57.7399C105.094 51.7924 95.021 48.7485 84.0273 50.611C77.0386 51.7723 70.7905 54.6361 65.2838 59.0816C63.1413 60.8239 61.319 62.7861 59.1961 64.4083C62.4199 64.4083 65.6443 64.5083 68.8481 64.5883C69.8092 64.6285 70.3099 65.3494 70.3501 66.11C70.6306 66.3101 70.8307 66.6308 70.8709 67.1114C70.8709 67.2315 70.891 67.3517 70.891 67.4718C70.9709 68.8336 70.891 70.2352 70.8508 71.597C70.8307 72.2777 70.2501 72.9789 69.5091 72.9387C68.0472 72.8387 66.5854 72.6185 65.1235 72.3782C70.3899 84.2732 74.7357 96.7489 79.5818 108.864C79.8623 108.103 80.1624 107.342 80.4429 106.581C81.945 100.133 83.7669 93.525 86.4105 87.7177C84.0474 82.9717 82.1451 77.4847 81.1839 72.3585C79.3415 72.2183 77.4991 72.0579 75.6571 71.8177C74.9362 71.7176 74.6357 71.0767 74.7759 70.5559C74.696 70.4156 74.6357 70.2553 74.6156 70.0552C74.4954 69.1342 74.3954 68.253 74.3552 67.332C74.3351 67.0314 74.3351 66.7313 74.3351 66.4307C74.3351 65.6495 74.8755 65.2493 75.4566 65.1689C75.5365 64.9688 75.6768 64.7884 75.9171 64.7482C81.1035 63.9071 86.3904 64.1876 91.6166 64.2475C95.121 64.2877 100.908 63.2461 104.132 64.808C104.994 65.2087 105.014 66.4302 104.433 67.0506C104.372 67.1118 104.333 67.1516 104.292 67.1918ZM127.321 54.7161C143.342 69.1744 146.565 92.684 138.395 112.188C129.664 132.994 108.958 141.104 87.7317 142.726C87.2913 142.767 86.9706 142.626 86.7505 142.406C63.4812 141.906 43.4161 124.684 39.4709 101.275C35.8263 79.7076 46.0795 58.2205 64.3423 46.4858C85.6892 32.7684 109.198 38.3354 127.321 54.7161ZM114.545 124.504C127.461 111.988 134.27 97.1294 129.904 79.0269C124.858 94.1856 119.812 109.425 114.545 124.504ZM103.351 131.012C100.848 126.426 99.3262 121.22 97.4641 116.374C95.3613 110.907 93.1589 105.46 91.1963 99.9531C87.3914 110.867 83.6668 121.861 79.1812 132.434C83.5668 133.115 87.9524 133.595 92.3978 133.275C96.2622 133.014 99.7268 131.953 103.351 131.012ZM70.6101 127.988C64.182 110.707 57.033 93.5447 51.286 76.0429C41.6939 95.7073 52.5272 117.174 70.6101 127.988Z" fill="white"/>
</svg>
